{
  "count": 82,
  "next": "https://swapi.dev/api/people/?page=2",
  "previous": null,
  "results": [
    {
      "name": "Luke Skywalker--MOCK",
      "height": "172",
      "mass": "77",
      "hair_color": "blond",
      "skin_color": "fair",
      "eye_color": "blue",
      "birth_year": "19BBY",
      "gender": "male"
    },
    {
      "name": "C-3PO--MOCK",
      "height": "167",
      "mass": "75",
      "hair_color": "n/a",
      "skin_color": "gold",
      "eye_color": "yellow",
      "birth_year": "112BBY",
      "gender": "n/a"
    }
  ]
}