{
  "count": 60,
  "next": "https://swapi.dev/api/planets/?page=2",
  "previous": null,
  "results": [
    {
      "name": "Tatooine--MOCK",
      "rotation_period": "23",
      "orbital_period": "304",
      "diameter": "10465",
      "climate": "arid",
      "gravity": "1 standard",
      "terrain": "desert",
      "surface_water": "1",
      "population": "200000"
    },
    {
      "name": "Alderaan--MOCK",
      "rotation_period": "24",
      "orbital_period": "364",
      "diameter": "12500",
      "climate": "temperate",
      "gravity": "1 standard",
      "terrain": "grasslands, mountains",
      "surface_water": "40",
      "population": "2000000000"
    }
  ]
}